{
  "success": true,
  "kindMessage": "OK",
  "data": {
    "items": [
      {
        "latitude": "-12.0960",
        "longitude": "-77.0365",
        "featureImage": "https://s3.us-east-2.amazonaws.com/dev.sport-fields-reservation/images/1743810824870-608acd82-d08c-4329-8eae-c8bb6844a821_1743810827510.jpeg?X-Amz-Algorithm=AWS4-HMAC-SHA256&X-Amz-Content-Sha256=UNSIGNED-PAYLOAD&X-Amz-Credential=AKIA4UTPOVEMJOKIQIRE%2F20250616%2Fus-east-2%2Fs3%2Faws4_request&X-Amz-Date=20250616T222004Z&X-Amz-Expires=300&X-Amz-Signature=0e57aace8e19b5b940b8bcc37dca535397ede3dce9f733e200c8ebfeb8db67b3&X-Amz-SignedHeaders=host&response-content-disposition=inline&response-content-type=image%2Fjpeg&x-amz-checksum-mode=ENABLED&x-id=GetObject",
        "productId": 2,
        "productsUuid": "dfdcc162-eb4f-4fbe-b268-7256b768b598",
        "isAvailable": 1,
        "establishmentUuid": "e145f03e-8577-4970-befd-8e799682af2b",
        "productsRate": null,
        "categoryUuid": "f71dc127-af17-4f94-b4a2-f461e6ec588d",
        "name": "Campo de voley 55",
        "description": "Campo de voley 5",
        "minimumReservationTime": 1,
        "maximumReservationTime": 2,
        "pricePerHour": "120.00",
        "visitantsNumberLimit": null,
        "appertureTime": "7",
        "closureTime": "22",
        "status": "ACTIVE",
        "averageRate": null,
        "availablePromotionDatetime": null,
        "size": "72",
        "categoryName": "Voley",
        "establisment": {
          "city": null,
          "country": "Perú",
          "district": "Lima"
        },
        "imagePriceUrl64": null,
        "distance": null
      },
      {
        "latitude": "-12.0960",
        "longitude": "-77.0365",
        "featureImage": "https://s3.us-east-2.amazonaws.com/dev.sport-fields-reservation/images/1743811028006-85e19db1-4f40-4a3b-9182-c0fd13ebbd7a_1743811029233.jpeg?X-Amz-Algorithm=AWS4-HMAC-SHA256&X-Amz-Content-Sha256=UNSIGNED-PAYLOAD&X-Amz-Credential=AKIA4UTPOVEMJOKIQIRE%2F20250616%2Fus-east-2%2Fs3%2Faws4_request&X-Amz-Date=20250616T222004Z&X-Amz-Expires=300&X-Amz-Signature=06e04f09ed454380e91b082667aa629352791cdab9940351c330e4859c3408a1&X-Amz-SignedHeaders=host&response-content-disposition=inline&response-content-type=image%2Fjpeg&x-amz-checksum-mode=ENABLED&x-id=GetObject",
        "productId": 3,
        "productsUuid": "52fb9af2-5396-4368-b37f-ee80d2520f1c",
        "isAvailable": 1,
        "establishmentUuid": "e145f03e-8577-4970-befd-8e799682af2b",
        "productsRate": null,
        "categoryUuid": "fc1bf213-1c80-4094-888b-02c7fd8de366",
        "name": "Basket 3x3",
        "description": "3x3 basket \n",
        "minimumReservationTime": 1,
        "maximumReservationTime": 2,
        "pricePerHour": "150.00",
        "visitantsNumberLimit": null,
        "appertureTime": "8",
        "closureTime": "23",
        "status": "ACTIVE",
        "averageRate": null,
        "availablePromotionDatetime": null,
        "size": "56",
        "categoryName": "Basquet",
        "establisment": {
          "city": null,
          "country": "Perú",
          "district": "Lima"
        },
        "imagePriceUrl64": null,
        "distance": null
      },
      {
        "latitude": "-12.0852",
        "longitude": "-77.0345",
        "featureImage": "https://s3.us-east-2.amazonaws.com/dev.sport-fields-reservation/images/1743811032567-491c06a1-a282-4789-8f55-001db406e19f_1743811033613.png?X-Amz-Algorithm=AWS4-HMAC-SHA256&X-Amz-Content-Sha256=UNSIGNED-PAYLOAD&X-Amz-Credential=AKIA4UTPOVEMJOKIQIRE%2F20250616%2Fus-east-2%2Fs3%2Faws4_request&X-Amz-Date=20250616T222004Z&X-Amz-Expires=300&X-Amz-Signature=f54c0cf18159a2bc17576b9c5c39df9d86d24324bb05eef81b21a438348aaeee&X-Amz-SignedHeaders=host&response-content-disposition=inline&response-content-type=image%2Fjpeg&x-amz-checksum-mode=ENABLED&x-id=GetObject",
        "productId": 4123,
        "productsUuid": "ad2c6fac-a85b-4105-a863-a2553fdd2070",
        "isAvailable": 1,
        "establishmentUuid": "226053f5-6d6f-48bb-a719-9691da7e6f79",
        "productsRate": null,
        "categoryUuid": "bc86ff80-36ff-47a0-b0bb-cf741d6abd4e",
        "name": "Haru Futbol Field #01",
        "description": "Haru Futbol Field",
        "minimumReservationTime": 1,
        "maximumReservationTime": 2,
        "pricePerHour": "100.00",
        "visitantsNumberLimit": null,
        "appertureTime": "12",
        "closureTime": "24",
        "status": "ACTIVE",
        "averageRate": null,
        "availablePromotionDatetime": null,
        "size": "120",
        "categoryName": "Futbol",
        "establisment": {
          "city": null,
          "country": "Peru",
          "district": "Lima"
        },
        "imagePriceUrl64": null,
        "distance": null
      },
      {
        "latitude": "-12.0852",
        "longitude": "-77.0345",
        "featureImage": "https://s3.us-east-2.amazonaws.com/dev.sport-fields-reservation/images/1743811032567-1000160214_1743811033613.jpg?X-Amz-Algorithm=AWS4-HMAC-SHA256&X-Amz-Content-Sha256=UNSIGNED-PAYLOAD&X-Amz-Credential=AKIA4UTPOVEMJOKIQIRE%2F20250616%2Fus-east-2%2Fs3%2Faws4_request&X-Amz-Date=20250616T222004Z&X-Amz-Expires=300&X-Amz-Signature=08853ce46773d9834de237eb1eb86523b6f9213517ca9318205f75e0401ca7be&X-Amz-SignedHeaders=host&response-content-disposition=inline&response-content-type=image%2Fjpeg&x-amz-checksum-mode=ENABLED&x-id=GetObject",
        "productId": 4,
        "productsUuid": "ad2c6fac-a85b-4105-a863-a2553fdd2070",
        "isAvailable": 1,
        "establishmentUuid": "226053f5-6d6f-48bb-a719-9691da7e6f79",
        "productsRate": null,
        "categoryUuid": "bc86ff80-36ff-47a0-b0bb-cf741d6abd4e",
        "name": "Haru Futbol Field #01",
        "description": "Haru Futbol Field",
        "minimumReservationTime": 1,
        "maximumReservationTime": 2,
        "pricePerHour": "100.00",
        "visitantsNumberLimit": null,
        "appertureTime": "12",
        "closureTime": "24",
        "status": "ACTIVE",
        "averageRate": null,
        "availablePromotionDatetime": null,
        "size": "120",
        "categoryName": "Futbol",
        "establisment": {
          "city": null,
          "country": "Peru",
          "district": "Lima"
        },
        "imagePriceUrl64": null,
        "distance": null
      },
      {
        "latitude": "-12.0960",
        "longitude": "-77.0365",
        "featureImage": "https://s3.us-east-2.amazonaws.com/dev.sport-fields-reservation/images/1743811129126-40a8dbc0-5a07-487b-b921-6bc19e76d4d1_1743811130215.jpeg?X-Amz-Algorithm=AWS4-HMAC-SHA256&X-Amz-Content-Sha256=UNSIGNED-PAYLOAD&X-Amz-Credential=AKIA4UTPOVEMJOKIQIRE%2F20250616%2Fus-east-2%2Fs3%2Faws4_request&X-Amz-Date=20250616T222004Z&X-Amz-Expires=300&X-Amz-Signature=ac2fc153347ed56846d0824b02fd87886e0a20c693ce942f5948dd7ba6a09a05&X-Amz-SignedHeaders=host&response-content-disposition=inline&response-content-type=image%2Fjpeg&x-amz-checksum-mode=ENABLED&x-id=GetObject",
        "productId": 5,
        "productsUuid": "d2981ddc-f2d0-4256-bd86-dd1e2cd1e57d",
        "isAvailable": 1,
        "establishmentUuid": "e145f03e-8577-4970-befd-8e799682af2b",
        "productsRate": null,
        "categoryUuid": "e0681e32-0aec-42e3-9fe0-ea9c11e7bab8",
        "name": "Campo de tenis",
        "description": "Aquí juegan los grandes",
        "minimumReservationTime": 1,
        "maximumReservationTime": 2,
        "pricePerHour": "150.00",
        "visitantsNumberLimit": null,
        "appertureTime": "8",
        "closureTime": "23",
        "status": "ACTIVE",
        "averageRate": null,
        "availablePromotionDatetime": null,
        "size": "2",
        "categoryName": "Tennis",
        "establisment": {
          "city": null,
          "country": "Perú",
          "district": "Lima"
        },
        "imagePriceUrl64": null,
        "distance": null
      },
      {
        "latitude": "-12.0852",
        "longitude": "-77.0345",
        "featureImage": "https://s3.us-east-2.amazonaws.com/dev.sport-fields-reservation/images/1743811476089-fe1926d4-2074-4f8c-95fa-5ff96920473b_1743811477429.png?X-Amz-Algorithm=AWS4-HMAC-SHA256&X-Amz-Content-Sha256=UNSIGNED-PAYLOAD&X-Amz-Credential=AKIA4UTPOVEMJOKIQIRE%2F20250616%2Fus-east-2%2Fs3%2Faws4_request&X-Amz-Date=20250616T222004Z&X-Amz-Expires=300&X-Amz-Signature=dc67d73af773f19384f6340370c1f4b4dd8948a358ac79f83d898e80f223bca5&X-Amz-SignedHeaders=host&response-content-disposition=inline&response-content-type=image%2Fjpeg&x-amz-checksum-mode=ENABLED&x-id=GetObject",
        "productId": 6,
        "productsUuid": "a9261b3c-26dd-4f3d-9bd1-0c4dc5c0dede",
        "isAvailable": 1,
        "establishmentUuid": "226053f5-6d6f-48bb-a719-9691da7e6f79",
        "productsRate": null,
        "categoryUuid": "f71dc127-af17-4f94-b4a2-f461e6ec588d",
        "name": "Haru Volley Field #01",
        "description": "La mejor cancha de Volley del mundo",
        "minimumReservationTime": 1,
        "maximumReservationTime": 1,
        "pricePerHour": "40.00",
        "visitantsNumberLimit": null,
        "appertureTime": "9",
        "closureTime": "22",
        "status": "ACTIVE",
        "averageRate": null,
        "availablePromotionDatetime": null,
        "size": "70",
        "categoryName": "Voley",
        "establisment": {
          "city": null,
          "country": "Peru",
          "district": "Lima"
        },
        "imagePriceUrl64": null,
        "distance": null
      },
      {
        "latitude": "-12.0852",
        "longitude": "-77.0345",
        "featureImage": "https://s3.us-east-2.amazonaws.com/dev.sport-fields-reservation/images/999_1744640037915.jpg?X-Amz-Algorithm=AWS4-HMAC-SHA256&X-Amz-Content-Sha256=UNSIGNED-PAYLOAD&X-Amz-Credential=AKIA4UTPOVEMJOKIQIRE%2F20250616%2Fus-east-2%2Fs3%2Faws4_request&X-Amz-Date=20250616T222004Z&X-Amz-Expires=300&X-Amz-Signature=2e587f04b8e464e0406b043ad4a7ce10e6c5cda73d33d849cfb67c30ab1ea56c&X-Amz-SignedHeaders=host&response-content-disposition=inline&response-content-type=image%2Fjpeg&x-amz-checksum-mode=ENABLED&x-id=GetObject",
        "productId": 7,
        "productsUuid": "f92e9fe6-4900-4157-8d42-2347962963a2",
        "isAvailable": 1,
        "establishmentUuid": "226053f5-6d6f-48bb-a719-9691da7e6f79",
        "productsRate": null,
        "categoryUuid": "fc1bf213-1c80-4094-888b-02c7fd8de366",
        "name": "Haru Básquet Field #01",
        "description": "La mejor cancha de básquet del mundo",
        "minimumReservationTime": 1,
        "maximumReservationTime": 2,
        "pricePerHour": "50.00",
        "visitantsNumberLimit": null,
        "appertureTime": "7",
        "closureTime": "20",
        "status": "ACTIVE",
        "averageRate": null,
        "availablePromotionDatetime": null,
        "size": "96",
        "categoryName": "Basquet",
        "establisment": {
          "city": null,
          "country": "Peru",
          "district": "Lima"
        },
        "imagePriceUrl64": null,
        "distance": null
      },
      {
        "latitude": "-12.0960",
        "longitude": "-77.0365",
        "featureImage": "https://s3.us-east-2.amazonaws.com/dev.sport-fields-reservation/images/1744327537951-IMG_0017_1744316674978.JPG?X-Amz-Algorithm=AWS4-HMAC-SHA256&X-Amz-Content-Sha256=UNSIGNED-PAYLOAD&X-Amz-Credential=AKIA4UTPOVEMJOKIQIRE%2F20250616%2Fus-east-2%2Fs3%2Faws4_request&X-Amz-Date=20250616T222004Z&X-Amz-Expires=300&X-Amz-Signature=13c00d69dd4423434f07560f6ddda46b5e5913f96c0920655750c140b9318679&X-Amz-SignedHeaders=host&response-content-disposition=inline&response-content-type=image%2Fjpeg&x-amz-checksum-mode=ENABLED&x-id=GetObject",
        "productId": 12,
        "productsUuid": "d53f6ab0-bc66-4f81-ab99-9d3a18859e80",
        "isAvailable": 1,
        "establishmentUuid": "e145f03e-8577-4970-befd-8e799682af2b",
        "productsRate": null,
        "categoryUuid": "fc1bf213-1c80-4094-888b-02c7fd8de366",
        "name": "Basket 33",
        "description": "Street",
        "minimumReservationTime": 1,
        "maximumReservationTime": 2,
        "pricePerHour": "120.00",
        "visitantsNumberLimit": null,
        "appertureTime": "8",
        "closureTime": "23",
        "status": "DRAFT",
        "averageRate": null,
        "availablePromotionDatetime": null,
        "size": "48",
        "categoryName": "Basquet",
        "establisment": {
          "city": null,
          "country": "Perú",
          "district": "Lima"
        },
        "imagePriceUrl64": null,
        "distance": null
      },
      {
        "latitude": "-12.0960",
        "longitude": "-77.0365",
        "featureImage": "https://s3.us-east-2.amazonaws.com/dev.sport-fields-reservation/images/1744733459279-5212caca-9b75-48da-8bee-7584197f4501_1744733460303.jpeg?X-Amz-Algorithm=AWS4-HMAC-SHA256&X-Amz-Content-Sha256=UNSIGNED-PAYLOAD&X-Amz-Credential=AKIA4UTPOVEMJOKIQIRE%2F20250616%2Fus-east-2%2Fs3%2Faws4_request&X-Amz-Date=20250616T222004Z&X-Amz-Expires=300&X-Amz-Signature=a6e6351c1429f7ece59ac37ba4377df62921c7dcf4000859dccdac47fca81ccd&X-Amz-SignedHeaders=host&response-content-disposition=inline&response-content-type=image%2Fjpeg&x-amz-checksum-mode=ENABLED&x-id=GetObject",
        "productId": 14,
        "productsUuid": "41d1174c-f17c-4752-9f28-0d83095fd73c",
        "isAvailable": 1,
        "establishmentUuid": "e145f03e-8577-4970-befd-8e799682af2b",
        "productsRate": null,
        "categoryUuid": "bc86ff80-36ff-47a0-b0bb-cf741d6abd4e",
        "name": "Campo 10",
        "description": "Amplio",
        "minimumReservationTime": 1,
        "maximumReservationTime": 2,
        "pricePerHour": "140.00",
        "visitantsNumberLimit": null,
        "appertureTime": "2",
        "closureTime": "8",
        "status": "ACTIVE",
        "averageRate": null,
        "availablePromotionDatetime": null,
        "size": "312",
        "categoryName": "Futbol",
        "establisment": {
          "city": null,
          "country": "Perú",
          "district": "Lima"
        },
        "imagePriceUrl64": null,
        "distance": null
      },
      {
        "latitude": "-12.0960",
        "longitude": "-77.0365",
        "featureImage": "https://s3.us-east-2.amazonaws.com/dev.sport-fields-reservation/images/1744733571064-fbf80111-0ed8-4ac3-8a01-18ae5fd6da25_1744733571965.jpeg?X-Amz-Algorithm=AWS4-HMAC-SHA256&X-Amz-Content-Sha256=UNSIGNED-PAYLOAD&X-Amz-Credential=AKIA4UTPOVEMJOKIQIRE%2F20250616%2Fus-east-2%2Fs3%2Faws4_request&X-Amz-Date=20250616T222004Z&X-Amz-Expires=300&X-Amz-Signature=d7be3c75053473364bdbf730a31f29903eeba7dba874c61fe943f20ef2d58ccd&X-Amz-SignedHeaders=host&response-content-disposition=inline&response-content-type=image%2Fjpeg&x-amz-checksum-mode=ENABLED&x-id=GetObject",
        "productId": 15,
        "productsUuid": "dbde7b35-518e-4e26-b6b5-b76f160d4a9f",
        "isAvailable": 1,
        "establishmentUuid": "e145f03e-8577-4970-befd-8e799682af2b",
        "productsRate": null,
        "categoryUuid": "f71dc127-af17-4f94-b4a2-f461e6ec588d",
        "name": "Campo voley 02",
        "description": "Buen ambiente ",
        "minimumReservationTime": 1,
        "maximumReservationTime": 3,
        "pricePerHour": "120.00",
        "visitantsNumberLimit": null,
        "appertureTime": "8",
        "closureTime": "23",
        "status": "ACTIVE",
        "averageRate": null,
        "availablePromotionDatetime": null,
        "size": "90",
        "categoryName": "Voley",
        "establisment": {
          "city": null,
          "country": "Perú",
          "district": "Lima"
        },
        "imagePriceUrl64": null,
        "distance": null
      },
      {
        "latitude": "-12.0960",
        "longitude": "-77.0365",
        "featureImage": "https://s3.us-east-2.amazonaws.com/dev.sport-fields-reservation/images/1744745230326-IMG_0018_1744734362059.PNG?X-Amz-Algorithm=AWS4-HMAC-SHA256&X-Amz-Content-Sha256=UNSIGNED-PAYLOAD&X-Amz-Credential=AKIA4UTPOVEMJOKIQIRE%2F20250616%2Fus-east-2%2Fs3%2Faws4_request&X-Amz-Date=20250616T222004Z&X-Amz-Expires=300&X-Amz-Signature=ea5547ae25a8529e0ce6761f63993c3c2224d25258a4f60ceba789e2ec53d1ec&X-Amz-SignedHeaders=host&response-content-disposition=inline&response-content-type=image%2Fjpeg&x-amz-checksum-mode=ENABLED&x-id=GetObject",
        "productId": 16,
        "productsUuid": "78c58f24-e596-4301-b977-54ea22105a7b",
        "isAvailable": 1,
        "establishmentUuid": "e145f03e-8577-4970-befd-8e799682af2b",
        "productsRate": null,
        "categoryUuid": "bc86ff80-36ff-47a0-b0bb-cf741d6abd4e",
        "name": "campo grande",
        "description": "Grasas sintético amplio",
        "minimumReservationTime": 1,
        "maximumReservationTime": 2,
        "pricePerHour": "120.00",
        "visitantsNumberLimit": null,
        "appertureTime": "8",
        "closureTime": "23",
        "status": "ACTIVE",
        "averageRate": null,
        "availablePromotionDatetime": null,
        "size": "1200",
        "categoryName": "Futbol",
        "establisment": {
          "city": null,
          "country": "Perú",
          "district": "Lima"
        },
        "imagePriceUrl64": null,
        "distance": null
      },
      {
        "latitude": null,
        "longitude": null,
        "featureImage": "https://s3.us-east-2.amazonaws.com/dev.sport-fields-reservation/images/1744735613265-a9d9dca5-22dd-465b-8c5a-c0ca065edf56_1744735614192.jpeg?X-Amz-Algorithm=AWS4-HMAC-SHA256&X-Amz-Content-Sha256=UNSIGNED-PAYLOAD&X-Amz-Credential=AKIA4UTPOVEMJOKIQIRE%2F20250616%2Fus-east-2%2Fs3%2Faws4_request&X-Amz-Date=20250616T222004Z&X-Amz-Expires=300&X-Amz-Signature=f96f25f6ac2ff92a164e6ac8935677e7d67a77e548822404c5cf6c1525884f97&X-Amz-SignedHeaders=host&response-content-disposition=inline&response-content-type=image%2Fjpeg&x-amz-checksum-mode=ENABLED&x-id=GetObject",
        "productId": 17,
        "productsUuid": "7335960d-0391-43c5-b477-c65bd0f17aa8",
        "isAvailable": 1,
        "establishmentUuid": "ef9d8858-e8d6-4e13-85dd-e753c1c6f297",
        "productsRate": null,
        "categoryUuid": "bc86ff80-36ff-47a0-b0bb-cf741d6abd4e",
        "name": "Cancha T01",
        "description": "Buen ambiente ",
        "minimumReservationTime": 1,
        "maximumReservationTime": 2,
        "pricePerHour": "100.00",
        "visitantsNumberLimit": null,
        "appertureTime": "8",
        "closureTime": "23",
        "status": "ACTIVE",
        "averageRate": null,
        "availablePromotionDatetime": null,
        "size": "276",
        "categoryName": "Futbol",
        "establisment": {
          "city": null,
          "country": "Perú ",
          "district": "Lima"
        },
        "imagePriceUrl64": null,
        "distance": null
      }
    ],
    "itemsCounter": 12,
    "pagination": {
      "page": 1,
      "totalItems": 32,
      "size": 12,
      "totalPages": 3
    },
    "filtering": []
  },
  "httpCode": 200,
  "timeLapse": {
    "started": "2025-06-16 22:20:04",
    "ended": "2025-06-16 22:20:04",
    "duration": 13.729682
  }
}
